^C:\USERS\SHAH_G\DOCUMENTS\VISUAL STUDIO 2013\PROJECTS\LAB06TSK01\LAB06TSK01\DEBUG\SOURCE.OBJ
C:\USERS\SHAH_G\DOCUMENTS\VISUAL STUDIO 2013\PROJECTS\LAB06TSK01\DEBUG\LAB06TSK01.EXE
C:\USERS\SHAH_G\DOCUMENTS\VISUAL STUDIO 2013\PROJECTS\LAB06TSK01\DEBUG\LAB06TSK01.ILK
C:\USERS\SHAH_G\DOCUMENTS\VISUAL STUDIO 2013\PROJECTS\LAB06TSK01\DEBUG\LAB06TSK01.PDB
